{
  "name": "devopstech.llz",
  "description": "devopstech - building the nex devops world",
  "image": "https://gateway.pinata.cloud/ipfs/QmPZsiJZoWDzj542EDWQu8nJDGZQsZdtviHisiFLWagJEb",
  "external_url": ""
}